STAT 202 – Data Wrangling Chapter 3.4 - 3.9
…
 Notice we overwrote the penguins dataset. You can ONLY overwrite the original data if you are not changing any of the original information. Otherwise store it as something NEW. 

arrange()

arrange(variable) sorts data in ascending (low to high; A to Z) order by default.

arrange(desc(variable)) sorts data in descending (high to low; Z to A) order.

Example:

penguins %>%
  arrange(desc(bill_length_mm))

# A tibble: 344 × 9
   species   island bill_length_mm bill_depth_mm flipper_length_mm body_mass_g
   <fct>     <fct>           <dbl>         <dbl>             <int>       <int>
 1 Gentoo    Biscoe           59.6          17                 230        6050
 2 Chinstrap Dream            58            17.8               181        3700
 3 Gentoo    Biscoe           55.9          17                 228        5600
 4 Chinstrap Dream            55.8          19.8               207        4000
 5 Gentoo    Biscoe           55.1          16                 230        5850
 6 Gentoo    Biscoe           54.3          15.7               231        5650
 7 Chinstrap Dream            54.2          20.8               201        4300
 8 Chinstrap Dream            53.5          19.9               205        4500
 9 Gentoo    Biscoe           53.4          15.8               219        5500
10 Chinstrap Dream            52.8          20                 205        4550
# ℹ 334 more rows
# ℹ 3 more variables: sex <fct>, year <int>, body_mass_lb <dbl>
…
